Capítulo 3 Respostas multiescala de espécies | Ecologia de Paisagens com R
…
## Joining with `by = join_by(sp_name, buff_dist_km)`

## # A tibble: 24 × 10
##    sp_name buff_dist_km logLik null.deviance deviance dev_exp   AIC
##    <chr>          <dbl>  <dbl>         <dbl>    <dbl>   <dbl> <dbl>
##  1 sppB           8      -60.5          142.    121.   0.150  125. 
##  2 sppB           4      -61.4          142.    123.   0.137  127. 
##  3 sppB          16      -62.2          142.    124.   0.127  128. 
##  4 sppB           2      -62.4          142.    125.   0.123  129. 
##  5 sppB           1      -64.8          142.    130.   0.0892 134. 
##  6 sppB           0.125  -64.9          142.    130.   0.0886 134. 
##  7 sppB           0.5    -66.4          142.    133.   0.0671 137. 
##  8 sppB           0.25   -67.1          142.    134.   0.0568 138. 
##  9 sppC           4      -41.4          113.     82.8  0.270   86.8
## 10 sppC           2      -41.7          113.     83.3  0.265   87.3
## # ℹ 14 more rows
## # ℹ 3 more variables: term <chr>, estimate <dbl>, p.value <dbl>
…
