Capítulo 6 Tidyverse | Ecologia de Paisagens com R
…
Podemos ainda verificar os dados, pedindo uma ajuda de cada um dos objetos.

## Ajuda dos dados
?penguins
?penguins_raw

6.6.2 glimpse()

Primeiramente, vamos observar os dados e utilizar a função tibble::glimpse() para ter uma noção geral dos dados.

## Visualizar os dados
penguins_raw

## # A tibble: 344 × 17
##    studyName `Sample Number` Species       Region Island Stage `Individual ID`
##    <chr>               <dbl> <chr>         <chr>  <chr>  <chr> <chr>          
##  1 PAL0708                 1 Adelie Pengu… Anvers Torge… Adul… N1A1           
##  2 PAL0708                 2 Adelie Pengu… Anvers Torge… Adul… N1A2           
##  3 PAL0708                 3 Adelie Pengu… Anvers Torge… Adul… N2A1           
##  4 PAL0708                 4 Adelie Pengu… Anvers Torge… Adul… N2A2           
##  5 PAL0708                 5 Adelie Pengu… Anvers Torge… Adul… N3A1           
##  6 PAL0708                 6 Adelie Pengu… Anvers Torge… Adul… N3A2           
##  7 PAL0708                 7 Adelie Pengu… Anvers Torge… Adul… N4A1           
##  8 PAL0708                 8 Adelie Pengu… Anvers Torge… Adul… N4A2           
##  9 PAL0708                 9 Adelie Pengu… Anvers Torge… Adul… N5A1           
## 10 PAL0708                10 Adelie Pengu… Anvers Torge… Adul… N5A2           
## # ℹ 334 more rows
## # ℹ 10 more variables: `Clutch Completion` <chr>, `Date Egg` <date>,
## #   `Culmen Length (mm)` <dbl>, `Culmen Depth (mm)` <dbl>,
## #   `Flipper Length (mm)` <dbl>, `Body Mass (g)` <dbl>, Sex <chr>,
## #   `Delta 15 N (o/oo)` <dbl>, `Delta 13 C (o/oo)` <dbl>, Comments <chr>
…
