Capítulo 5 Garimpo do Lourenço | Ecologia de Paisagens com R
…
metricas_1985 <- read_excel("metricas_lourenco_1985.xlsx")
metricas_1985

#  layer level class id    metric     value
#   <dbl> <chr> <dbl> <chr> <chr>      <dbl>
#     1 class     3 NA    area_cv  529.   
#     1 class     4 NA    area_cv   22.3  
#     1 class    11 NA    area_cv   71.2  

Ou use o função file.choose(), que faz a busca para arquivos.

metricas_1985 <- read_excel(file.choose())
metricas_1985

## # A tibble: 182 × 6
##    layer level class id    metric     value
##    <dbl> <chr> <dbl> <chr> <chr>      <dbl>
##  1     1 class     3 NA    area_cv  529.   
##  2     1 class     4 NA    area_cv   22.3  
##  3     1 class    11 NA    area_cv   71.2  
##  4     1 class    12 NA    area_cv  169.   
##  5     1 class    15 NA    area_cv  175.   
##  6     1 class    30 NA    area_cv  276.   
##  7     1 class    33 NA    area_cv   74.2  
##  8     1 class     3 NA    area_mn 5664.   
##  9     1 class     4 NA    area_mn    0.848
## 10     1 class    11 NA    area_mn    0.255
## # ℹ 172 more rows
…
